
material _missing_material_
{
    receive_shadows off
    technique
    {
        pass
        {
            ambient 0.1 0.1 0.1 1.0
            diffuse 0.8 0.0 0.0 1.0
            specular 0.5 0.5 0.5 1.0 12.5
            emissive 0.3 0.3 0.3 1.0
        }
    }
}

// Plane genrated by blender2ogre 0.6.0

material Plane 
{
    receive_shadows on 

    technique
    {
        pass Plane
        {
            ambient 1.0 0.010975956916809082 0.0 1.0
            diffuse 0.800000011920929 0.008780765664290868 0.0 1.0
            specular 0.0 0.0 0.0 1.0 12.5
            emissive 0.0 0.0 0.0 1.0

            alpha_to_coverage off
            colour_write on
            cull_hardware clockwise
            depth_check on
            depth_func less_equal
            depth_write on
            illumination_stage 
            light_clip_planes off
            light_scissor off
            lighting on
            normalise_normals off
            polygon_mode solid
            scene_blend one zero
            scene_blend_op add
            shading gouraud
            transparent_sorting on

        }
    }
}
// PlaneMetal genrated by blender2ogre 0.6.0

material PlaneMetal 
{
    receive_shadows on 

    technique
    {
        pass PlaneMetal
        {
            ambient 0.15232430398464203 0.14662592113018036 0.14662592113018036 1.0
            diffuse 0.15232430398464203 0.14662592113018036 0.14662592113018036 1.0
            specular 0.0 0.0 0.0 1.0 12.5
            emissive 0.0 0.0 0.0 1.0

            alpha_to_coverage off
            colour_write on
            cull_hardware clockwise
            depth_check on
            depth_func less_equal
            depth_write on
            illumination_stage 
            light_clip_planes off
            light_scissor off
            lighting on
            normalise_normals off
            polygon_mode solid
            scene_blend one zero
            scene_blend_op add
            shading gouraud
            transparent_sorting on

        }
    }
}
// PlaneColors genrated by blender2ogre 0.6.0

material PlaneColors 
{
    receive_shadows on 

    technique
    {
        pass PlaneColors
        {
            ambient 1.0 1.0 1.0 1.0
            diffuse 1.0 1.0 1.0 1.0
            specular 0.0 0.0 0.0 1.0 12.5
            emissive 0.0 0.0 0.0 1.0

            alpha_to_coverage off
            colour_write on
            cull_hardware clockwise
            depth_check on
            depth_func less_equal
            depth_write on
            illumination_stage 
            light_clip_planes off
            light_scissor off
            lighting on
            normalise_normals off
            polygon_mode solid
            scene_blend one zero
            scene_blend_op add
            shading gouraud
            transparent_sorting on

        }
    }
}
// Black genrated by blender2ogre 0.6.0

material Black 
{
    receive_shadows on 

    technique
    {
        pass Black
        {
            ambient 0.0 0.0 0.0 1.0
            diffuse 0.0 0.0 0.0 1.0
            specular 0.0 0.0 0.0 1.0 12.5
            emissive 0.0 0.0 0.0 1.0

            alpha_to_coverage off
            colour_write on
            cull_hardware clockwise
            depth_check on
            depth_func less_equal
            depth_write on
            illumination_stage 
            light_clip_planes off
            light_scissor off
            lighting on
            normalise_normals off
            polygon_mode solid
            scene_blend one zero
            scene_blend_op add
            shading gouraud
            transparent_sorting on

        }
    }
}
